{
  "assetsPath": "assets/img/a-propos",
  "banniere": {
    "nom": "Florian Lefeuvre",
    "sousTitre": "Photography & Film Editing"
  },
  "introduction": "A love for <strong>esthetism</strong>, an affect for <strong>archives</strong>, and a never ending <strong>quest for details</strong>.<br/>These are the words that best describes my work.",
  "prestations": [
    {
      "title": {
        "isHidden": true,
        "cible": "Photography",
        "proposition": "Retouching"
      },
      "description": ""
    },
    {
      "title": {
        "isHidden": true,
        "cible": "Film & photography",
        "proposition": "Color grading"
      },
      "description": ""
    },
    {
      "title": {
        "isHidden": true,
        "cible": "Audio",
        "proposition": "Soundscape design"
      },
      "description": ""
    }
  ]
}
